pipeline/pipeline.vcd
$version Generated by VerilatedVcd $end
$date Wed Dec 14 17:54:18 2022 $end
$timescale 1ps $end

 $scope module TOP $end
  $var wire  1 '! clk $end
  $var wire  1 (! rst $end
  $scope module pipeline $end
   $var wire 32 .! ADDR_WIDTH [31:0] $end
   $var wire  3 ( ALUControlD [2:0] $end
   $var wire  3 3 ALUControlE [2:0] $end
   $var wire 32 9 ALUResultE [31:0] $end
   $var wire 32 C ALUResultM [31:0] $end
   $var wire 32 M ALUResultW [31:0] $end
   $var wire  1 ) ALUSrcD $end
   $var wire  1 4 ALUSrcE $end
   $var wire  1 ' BranchD $end
   $var wire  1 2 BranchE $end
   $var wire 32 /! DATA_WIDTH [31:0] $end
   $var wire 32 + ImmExtD [31:0] $end
   $var wire 32 8 ImmExtE [31:0] $end
   $var wire 32 # InstrD [31:0] $end
   $var wire 32 a InstrF [31:0] $end
   $var wire  1 . JalSrcD $end
   $var wire  1 ? JalSrcE $end
   $var wire  1 & JumpD $end
   $var wire  1 1 JumpE $end
   $var wire  1 0 LoadSignExtD $end
   $var wire  1 A LoadSignExtE $end
   $var wire  1 K LoadSignExtM $end
   $var wire  1 % MemWriteD $end
   $var wire  1 < MemWriteE $end
   $var wire  1 E MemWriteM $end
   $var wire 32 , PCD [31:0] $end
   $var wire 32 7 PCE [31:0] $end
   $var wire 32 b PCF [31:0] $end
   $var wire 32 - PCPlus4D [31:0] $end
   $var wire 32 > PCPlus4E [31:0] $end
   $var wire 32 c PCPlus4F [31:0] $end
   $var wire 32 I PCPlus4M [31:0] $end
   $var wire 32 O PCPlus4W [31:0] $end
   $var wire  1 B PCSrcE $end
   $var wire 32 +! PCTargetE [31:0] $end
   $var wire  1 0! REgWriteD $end
   $var wire 32 )! Rd1D [31:0] $end
   $var wire 32 5 Rd1E [31:0] $end
   $var wire 32 *! Rd2D [31:0] $end
   $var wire 32 6 Rd2E [31:0] $end
   $var wire  5 * RdD [4:0] $end
   $var wire 32 = RdE [31:0] $end
   $var wire 32 H RdM [31:0] $end
   $var wire  5 Q RdW [4:0] $end
   $var wire 32 ,! ReadDataM [31:0] $end
   $var wire 32 N ReadDataW [31:0] $end
   $var wire  1 S RegWriteD $end
   $var wire  1 : RegWriteE $end
   $var wire  1 F RegWriteM $end
   $var wire  1 R RegWriteW $end
   $var wire  2 $ ResultSrcD [1:0] $end
   $var wire  2 ; ResultSrcE [1:0] $end
   $var wire  2 G ResultSrcM [1:0] $end
   $var wire  2 L ResultSrcW [1:0] $end
   $var wire 32 P ResultW [31:0] $end
   $var wire  2 / WordWidthD [1:0] $end
   $var wire  2 @ WordWidthE [1:0] $end
   $var wire  2 J WordWidthM [1:0] $end
   $var wire 32 6 WriteDataE [31:0] $end
   $var wire 32 D WriteDataM [31:0] $end
   $var wire  1 '! clk $end
   $var wire  1 (! rst $end
   $scope module Decode_block $end
    $var wire 32 .! ADDR_WIDTH [31:0] $end
    $var wire  3 ( ALUControlD [2:0] $end
    $var wire  1 ) ALUSrcD $end
    $var wire  1 ' BranchD $end
    $var wire 32 /! DATA_WIDTH [31:0] $end
    $var wire 32 + ImmExtD [31:0] $end
    $var wire  2 T ImmSrcD [1:0] $end
    $var wire 32 # InstrD [31:0] $end
    $var wire  1 . JalSrcD $end
    $var wire  1 & JumpD $end
    $var wire  1 0 LoadSignExtD $end
    $var wire  1 % MemWriteD $end
    $var wire 32 )! Rd1D [31:0] $end
    $var wire 32 *! Rd2D [31:0] $end
    $var wire  5 * RdD [4:0] $end
    $var wire  5 Q RdW [4:0] $end
    $var wire  1 S RegWriteD $end
    $var wire  1 R RegWriteW $end
    $var wire  2 $ ResultSrcD [1:0] $end
    $var wire 32 P ResultW [31:0] $end
    $var wire  2 / WordWidthD [1:0] $end
    $var wire  1 1! clk $end
    $scope module Control_Unit $end
     $var wire  3 ( ALUControlD [2:0] $end
     $var wire  1 ) ALUSrcD $end
     $var wire  1 ' BranchD $end
     $var wire  2 T ImmSrcD [1:0] $end
     $var wire  1 . JalSrcD $end
     $var wire  1 & JumpD $end
     $var wire  1 0 LoadSignExtD $end
     $var wire  1 % MemWriteD $end
     $var wire  1 S RegWriteD $end
     $var wire  2 $ ResultSrcD [1:0] $end
     $var wire  2 / WordWidthD [1:0] $end
     $var wire  3 V funct3 [2:0] $end
     $var wire  7 W funct7 [6:0] $end
     $var wire  7 U op [6:0] $end
    $upscope $end
    $scope module Extend $end
     $var wire 32 + ImmExt [31:0] $end
     $var wire  2 T ImmSrc [1:0] $end
     $var wire 25 X immediate [31:7] $end
    $upscope $end
    $scope module MyRegister $end
     $var wire 32 .! ADDR_WIDTH [31:0] $end
     $var wire 32 /! DATA_WIDTH [31:0] $end
     $var wire 32 d a0 [31:0] $end
     $var wire  5 Y ad1 [4:0] $end
     $var wire  5 Z ad2 [4:0] $end
     $var wire  5 Q ad3 [4:0] $end
     $var wire  1 1! clk $end
     $var wire 32 )! rd1 [31:0] $end
     $var wire 32 *! rd2 [31:0] $end
     $var wire 32 e registers[0] [31:0] $end
     $var wire 32 o registers[10] [31:0] $end
     $var wire 32 p registers[11] [31:0] $end
     $var wire 32 q registers[12] [31:0] $end
     $var wire 32 r registers[13] [31:0] $end
     $var wire 32 s registers[14] [31:0] $end
     $var wire 32 t registers[15] [31:0] $end
     $var wire 32 u registers[16] [31:0] $end
     $var wire 32 v registers[17] [31:0] $end
     $var wire 32 w registers[18] [31:0] $end
     $var wire 32 x registers[19] [31:0] $end
     $var wire 32 f registers[1] [31:0] $end
     $var wire 32 y registers[20] [31:0] $end
     $var wire 32 z registers[21] [31:0] $end
     $var wire 32 { registers[22] [31:0] $end
     $var wire 32 | registers[23] [31:0] $end
     $var wire 32 } registers[24] [31:0] $end
     $var wire 32 ~ registers[25] [31:0] $end
     $var wire 32 !! registers[26] [31:0] $end
     $var wire 32 "! registers[27] [31:0] $end
     $var wire 32 #! registers[28] [31:0] $end
     $var wire 32 $! registers[29] [31:0] $end
     $var wire 32 g registers[2] [31:0] $end
     $var wire 32 %! registers[30] [31:0] $end
     $var wire 32 &! registers[31] [31:0] $end
     $var wire 32 h registers[3] [31:0] $end
     $var wire 32 i registers[4] [31:0] $end
     $var wire 32 j registers[5] [31:0] $end
     $var wire 32 k registers[6] [31:0] $end
     $var wire 32 l registers[7] [31:0] $end
     $var wire 32 m registers[8] [31:0] $end
     $var wire 32 n registers[9] [31:0] $end
     $var wire 32 P wd3 [31:0] $end
     $var wire  1 R we3 $end
    $upscope $end
   $upscope $end
   $scope module Execute_block $end
    $var wire 32 .! ADDR_WIDTH [31:0] $end
    $var wire  3 3 ALUControlE [2:0] $end
    $var wire 32 9 ALUResultE [31:0] $end
    $var wire  1 4 ALUSrcE $end
    $var wire  1 2 BranchE $end
    $var wire 32 /! DATA_WIDTH [31:0] $end
    $var wire 32 8 ImmExtE [31:0] $end
    $var wire  1 ? JalSrcE $end
    $var wire  1 1 JumpE $end
    $var wire 32 ] PCAdderResult [31:0] $end
    $var wire 32 7 PCE [31:0] $end
    $var wire  1 B PCSrcE $end
    $var wire 32 +! PCTargetE [31:0] $end
    $var wire 32 5 Rd1E [31:0] $end
    $var wire 32 6 Rd2E [31:0] $end
    $var wire 32 \ SrcBE [31:0] $end
    $var wire 32 6 WriteDataE [31:0] $end
    $var wire  1 [ ZeroE $end
    $scope module ALU $end
     $var wire 32 /! DATA_WIDTH [31:0] $end
     $var wire  3 3 ctrl [2:0] $end
     $var wire  1 _ less_than_signed $end
     $var wire  1 ^ less_than_unsigned $end
     $var wire 32 5 op1 [31:0] $end
     $var wire 32 \ op2 [31:0] $end
     $var wire 32 9 out [31:0] $end
     $var wire  1 [ zero $end
    $upscope $end
    $scope module ALU_mux_B $end
     $var wire 32 /! VALUE_WIDTH [31:0] $end
     $var wire 32 6 in0 [31:0] $end
     $var wire 32 8 in1 [31:0] $end
     $var wire 32 \ out [31:0] $end
     $var wire  1 4 sel $end
    $upscope $end
    $scope module Jal_mux $end
     $var wire 32 /! VALUE_WIDTH [31:0] $end
     $var wire 32 +! in0 [31:0] $end
     $var wire 32 ] in1 [31:0] $end
     $var wire 32 +! out [31:0] $end
     $var wire  1 ? sel $end
    $upscope $end
    $scope module PCTarget_adder $end
     $var wire 32 7 in0 [31:0] $end
     $var wire 32 8 in1 [31:0] $end
     $var wire 32 ] out [31:0] $end
    $upscope $end
   $upscope $end
   $scope module Fetch_block $end
    $var wire 32 .! ADDR_WIDTH [31:0] $end
    $var wire 32 /! DATA_WIDTH [31:0] $end
    $var wire 32 a InstrF [31:0] $end
    $var wire 32 b PCF [31:0] $end
    $var wire 32 -! PCF0 [31:0] $end
    $var wire 32 c PCPlus4F [31:0] $end
    $var wire  1 B PCSrcE $end
    $var wire 32 +! PCTargetE [31:0] $end
    $var wire  1 '! clk $end
    $scope module Instr_rom $end
     $var wire 32 2! ADDR_WIDTH [31:0] $end
     $var wire 32 3! BASE_ADDR [31:0] $end
     $var wire 32 b addr [31:0] $end
     $var wire 32 a dout [31:0] $end
    $upscope $end
    $scope module PC_Plus_4_adder $end
     $var wire 32 b in0 [31:0] $end
     $var wire 32 4! in1 [31:0] $end
     $var wire 32 c out [31:0] $end
    $upscope $end
    $scope module PC_mux $end
     $var wire 32 /! VALUE_WIDTH [31:0] $end
     $var wire 32 c in0 [31:0] $end
     $var wire 32 +! in1 [31:0] $end
     $var wire 32 -! out [31:0] $end
     $var wire  1 B sel $end
    $upscope $end
   $upscope $end
   $scope module Memory_block $end
    $var wire 32 .! ADDR_WIDTH [31:0] $end
    $var wire 32 C ALUResultM [31:0] $end
    $var wire 32 /! DATA_WIDTH [31:0] $end
    $var wire  1 K LoadSignExtM $end
    $var wire  1 E MemWriteM $end
    $var wire 32 ,! ReadDataM [31:0] $end
    $var wire  2 J WordWidthM [1:0] $end
    $var wire 32 D WriteDataM [31:0] $end
    $var wire  1 '! clk $end
    $scope module Data_Memory $end
     $var wire 32 5! ADDR_WIDTH [31:0] $end
     $var wire 32 6! DATA_WIDTH [31:0] $end
     $var wire  1 '! clk $end
     $var wire 32 D din [31:0] $end
     $var wire 32 ,! dout [31:0] $end
     $var wire 17 ` read_addr [16:0] $end
     $var wire  1 K read_sign_ext $end
     $var wire  2 J width [1:0] $end
     $var wire 17 ` write_addr [16:0] $end
     $var wire  1 E write_en $end
    $upscope $end
   $upscope $end
   $scope module Writeback_block $end
    $var wire 32 .! ADDR_WIDTH [31:0] $end
    $var wire 32 M ALUResultW [31:0] $end
    $var wire 32 /! DATA_WIDTH [31:0] $end
    $var wire 32 O PCPlus4W [31:0] $end
    $var wire 32 N ReadDataW [31:0] $end
    $var wire  2 L ResultSrcW [1:0] $end
    $var wire 32 P ResultW [31:0] $end
    $scope module Writeback_mux $end
     $var wire 32 /! VALUE_WIDTH [31:0] $end
     $var wire 32 M in0 [31:0] $end
     $var wire 32 N in1 [31:0] $end
     $var wire 32 O in2 [31:0] $end
     $var wire 32 P out [31:0] $end
     $var wire  2 L sel [1:0] $end
    $upscope $end
   $upscope $end
  $upscope $end
 $upscope $end
$enddefinitions $end


#0
b00000000000000000000000000000000 #
b00 $
0%
0&
0'
b000 (
0)
b00000 *
b00000000000000000000000000000000 +
b00000000000000000000000000000000 ,
b00000000000000000000000000000000 -
0.
b00 /
00
01
02
b000 3
04
b00000000000000000000000000000000 5
b00000000000000000000000000000000 6
b00000000000000000000000000000000 7
b00000000000000000000000000000000 8
b00000000000000000000000000000000 9
0:
b00 ;
0<
b00000000000000000000000000000000 =
b00000000000000000000000000000000 >
0?
b00 @
0A
0B
b00000000000000000000000000000000 C
b00000000000000000000000000000000 D
0E
0F
b00 G
b00000000000000000000000000000000 H
b00000000000000000000000000000000 I
b00 J
0K
b00 L
b00000000000000000000000000000000 M
b00000000000000000000000000000000 N
b00000000000000000000000000000000 O
b00000000000000000000000000000000 P
b00000 Q
0R
0S
b00 T
b0000000 U
b000 V
b0000000 W
b0000000000000000000000000 X
b00000 Y
b00000 Z
1[
b00000000000000000000000000000000 \
b00000000000000000000000000000000 ]
0^
0_
b00000000000000000 `
b00000000000000000000000000010011 a
b00000000000000000000000000000000 b
b00000000000000000000000000000100 c
b00000000000000000000000000000000 d
b00000000000000000000000000000000 e
b00000000000000000000000000000000 f
b00000000000000000000000000000000 g
b00000000000000000000000000000000 h
b00000000000000000000000000000000 i
b00000000000000000000000000000000 j
b00000000000000000000000000000000 k
b00000000000000000000000000000000 l
b00000000000000000000000000000000 m
b00000000000000000000000000000000 n
b00000000000000000000000000000000 o
b00000000000000000000000000000000 p
b00000000000000000000000000000000 q
b00000000000000000000000000000000 r
b00000000000000000000000000000000 s
b00000000000000000000000000000000 t
b00000000000000000000000000000000 u
b00000000000000000000000000000000 v
b00000000000000000000000000000000 w
b00000000000000000000000000000000 x
b00000000000000000000000000000000 y
b00000000000000000000000000000000 z
b00000000000000000000000000000000 {
b00000000000000000000000000000000 |
b00000000000000000000000000000000 }
b00000000000000000000000000000000 ~
b00000000000000000000000000000000 !!
b00000000000000000000000000000000 "!
b00000000000000000000000000000000 #!
b00000000000000000000000000000000 $!
b00000000000000000000000000000000 %!
b00000000000000000000000000000000 &!
0'!
1(!
b00000000000000000000000000000000 )!
b00000000000000000000000000000000 *!
b00000000000000000000000000000000 +!
b00000000000000000000000000000000 ,!
b00000000000000000000000000000100 -!
b00000000000000000000000000000101 .!
b00000000000000000000000000100000 /!
00!
01!
b00000000000000000000000000001100 2!
b00000000000000000000000000000000 3!
b00000000000000000000000000000100 4!
b00000000000000000000000000010001 5!
b00000000000000000000000000001000 6!
#1
b00000010100000000000100100010011 a
b00000000000000000000000000000100 b
b00000000000000000000000000001000 c
1'!
b00000000000000000000000000001000 -!
#2
b00000010100000000000100100010011 #
1)
b10010 *
b00000000000000000000000000101000 +
b00000000000000000000000000000100 ,
b00000000000000000000000000001000 -
1S
b0010011 U
b0000001 W
b0000001010000000000010010 X
b01000 Z
0'!
0(!
#3
b00000000110000000000110010010011 a
b00000000000000000000000000001000 b
b00000000000000000000000000001100 c
1'!
b00000000000000000000000000001100 -!
#4
b00000000110000000000110010010011 #
b11001 *
b00000000000000000000000000001100 +
b00000000000000000000000000001000 ,
b00000000000000000000000000001100 -
14
b00000000000000000000000000000100 7
b00000000000000000000000000101000 8
b00000000000000000000000000101000 9
1:
b00000000000000000000000000010010 =
b00000000000000000000000000001000 >
b0000000 W
b0000000011000000000011001 X
b01100 Z
0[
b00000000000000000000000000101000 \
b00000000000000000000000000101100 ]
1^
1_
0'!
#5
b00000001001000000000110100010011 a
b00000000000000000000000000001100 b
b00000000000000000000000000010000 c
1'!
b00000000000000000000000000010000 -!
#6
b00000001001000000000110100010011 #
b11010 *
b00000000000000000000000000010010 +
b00000000000000000000000000001100 ,
b00000000000000000000000000010000 -
b00000000000000000000000000001000 7
b00000000000000000000000000001100 8
b00000000000000000000000000001100 9
b00000000000000000000000000011001 =
b00000000000000000000000000001100 >
b00000000000000000000000000101000 C
1F
b00000000000000000000000000010010 H
b00000000000000000000000000001000 I
b0000000100100000000011010 X
b10010 Z
b00000000000000000000000000001100 \
b00000000000000000000000000010100 ]
b00000000000101000 `
0'!
#7
b00000000100100000000001100010011 a
b00000000000000000000000000010000 b
b00000000000000000000000000010100 c
1'!
b00000000000000000000000000010100 -!
#8
b00000000100100000000001100010011 #
b00110 *
b00000000000000000000000000001001 +
b00000000000000000000000000010000 ,
b00000000000000000000000000010100 -
b00000000000000000000000000001100 7
b00000000000000000000000000010010 8
b00000000000000000000000000010010 9
b00000000000000000000000000011010 =
b00000000000000000000000000010000 >
b00000000000000000000000000001100 C
b00000000000000000000000000011001 H
b00000000000000000000000000001100 I
b00000000000000000000000000101000 M
b00000000000000000000000000001000 O
b00000000000000000000000000101000 P
b10010 Q
1R
b0000000010010000000000110 X
b01001 Z
b00000000000000000000000000010010 \
b00000000000000000000000000011110 ]
b00000000000001100 `
0'!
#9
b00000000010100000000110000010011 a
b00000000000000000000000000010100 b
b00000000000000000000000000011000 c
1'!
b00000000000000000000000000011000 -!
#10
b00000000010100000000110000010011 #
b11000 *
b00000000000000000000000000000101 +
b00000000000000000000000000010100 ,
b00000000000000000000000000011000 -
b00000000000000000000000000010000 7
b00000000000000000000000000001001 8
b00000000000000000000000000001001 9
b00000000000000000000000000000110 =
b00000000000000000000000000010100 >
b00000000000000000000000000010010 C
b00000000000000000000000000011010 H
b00000000000000000000000000010000 I
b00000000000000000000000000001100 M
b00000000000000000000000000001100 O
b00000000000000000000000000001100 P
b11001 Q
b0000000001010000000011000 X
b00101 Z
b00000000000000000000000000001001 \
b00000000000000000000000000011001 ]
b00000000000010010 `
0'!
#11
b00000000110000000000110110010011 a
b00000000000000000000000000011000 b
b00000000000000000000000000011100 c
1'!
b00000000000000000000000000011100 -!
#12
b00000000110000000000110110010011 #
b11011 *
b00000000000000000000000000001100 +
b00000000000000000000000000011000 ,
b00000000000000000000000000011100 -
b00000000000000000000000000010100 7
b00000000000000000000000000000101 8
b00000000000000000000000000000101 9
b00000000000000000000000000011000 =
b00000000000000000000000000011000 >
b00000000000000000000000000001001 C
b00000000000000000000000000000110 H
b00000000000000000000000000010100 I
b00000000000000000000000000010010 M
b00000000000000000000000000010000 O
b00000000000000000000000000010010 P
b11010 Q
b0000000011000000000011011 X
b01100 Z
b00000000000000000000000000000101 \
b00000000000001001 `
0'!
#13
b00000000101000000000001010010011 a
b00000000000000000000000000011100 b
b00000000000000000000000000100000 c
1'!
b00000000000000000000000000100000 -!
#14
b00000000101000000000001010010011 #
b00101 *
b00000000000000000000000000001010 +
b00000000000000000000000000011100 ,
b00000000000000000000000000100000 -
b00000000000000000000000000011000 7
b00000000000000000000000000001100 8
b00000000000000000000000000001100 9
b00000000000000000000000000011011 =
b00000000000000000000000000011100 >
b00000000000000000000000000000101 C
b00000000000000000000000000011000 H
b00000000000000000000000000011000 I
b00000000000000000000000000001001 M
b00000000000000000000000000010100 O
b00000000000000000000000000001001 P
b00110 Q
b0000000010100000000000101 X
b01010 Z
b00000000000000000000000000001100 \
b00000000000000000000000000100100 ]
b00000000000000101 `
0'!
#15
b00000000110000000000001110010011 a
b00000000000000000000000000100000 b
b00000000000000000000000000100100 c
1'!
b00000000000000000000000000100100 -!
#16
b00000000110000000000001110010011 #
b00111 *
b00000000000000000000000000001100 +
b00000000000000000000000000100000 ,
b00000000000000000000000000100100 -
b00000000000000000000000000011100 7
b00000000000000000000000000001010 8
b00000000000000000000000000001010 9
b00000000000000000000000000000101 =
b00000000000000000000000000100000 >
b00000000000000000000000000001100 C
b00000000000000000000000000011011 H
b00000000000000000000000000011100 I
b00000000000000000000000000000101 M
b00000000000000000000000000011000 O
b00000000000000000000000000000101 P
b11000 Q
b0000000011000000000000111 X
b01100 Z
b00000000000000000000000000001010 \
b00000000000000000000000000100110 ]
b00000000000001100 `
0'!
#17
b00000000101000000000111000010011 a
b00000000000000000000000000100100 b
b00000000000000000000000000101000 c
1'!
b00000000000000000000000000101000 -!
#18
b00000000101000000000111000010011 #
b11100 *
b00000000000000000000000000001010 +
b00000000000000000000000000100100 ,
b00000000000000000000000000101000 -
b00000000000000000000000000100000 7
b00000000000000000000000000001100 8
b00000000000000000000000000001100 9
b00000000000000000000000000000111 =
b00000000000000000000000000100100 >
b00000000000000000000000000001010 C
b00000000000000000000000000000101 H
b00000000000000000000000000100000 I
b00000000000000000000000000001100 M
b00000000000000000000000000011100 O
b00000000000000000000000000001100 P
b11011 Q
b0000000010100000000011100 X
b01010 Z
b00000000000000000000000000001100 \
b00000000000000000000000000101100 ]
b00000000000001010 `
0'!
#19
b00000001101011001000100110110011 a
b00000000000000000000000000101000 b
b00000000000000000000000000101100 c
1'!
b00000000000000000000000000101100 -!
#20
b00000001101011001000100110110011 #
0)
b10011 *
b00000000000000000000000000011010 +
b00000000000000000000000000101000 ,
b00000000000000000000000000101100 -
b00000000000000000000000000100100 7
b00000000000000000000000000001010 8
b00000000000000000000000000001010 9
b00000000000000000000000000011100 =
b00000000000000000000000000101000 >
b00000000000000000000000000001100 C
b00000000000000000000000000000111 H
b00000000000000000000000000100100 I
b00000000000000000000000000001010 M
b00000000000000000000000000100000 O
b00000000000000000000000000001010 P
b00101 Q
b0110011 U
b0000000110101100100010011 X
b11001 Y
b11010 Z
b00000000000000000000000000001010 \
b00000000000000000000000000101110 ]
b00000000000001100 `
0'!
#21
b01000001100000110000101000110011 a
b00000000000000000000000000101100 b
b00000000000000000000000000110000 c
1'!
b00000000000000000000000000110000 -!
#22
b01000001100000110000101000110011 #
b001 (
b10100 *
b00000000000000000000010000011000 +
b00000000000000000000000000101100 ,
b00000000000000000000000000110000 -
04
b00000000000000000000000000101000 7
b00000000000000000000000000011010 8
b00000000000000000000000000000000 9
b00000000000000000000000000010011 =
b00000000000000000000000000101100 >
b00000000000000000000000000001010 C
b00000000000000000000000000011100 H
b00000000000000000000000000101000 I
b00000000000000000000000000001100 M
b00000000000000000000000000100100 O
b00000000000000000000000000001100 P
b00111 Q
b0100000 W
b0100000110000011000010100 X
b00110 Y
b11000 Z
1[
b00000000000000000000000000000000 \
b00000000000000000000000001000010 ]
0^
0_
b00000000000001010 `
0'!
#23
b00000000010111011111101010110011 a
b00000000000000000000000000110000 b
b00000000000000000000000000110100 c
1'!
b00000000000000000000000000110100 -!
#24
b00000000010111011111101010110011 #
b010 (
b10101 *
b00000000000000000000000000000101 +
b00000000000000000000000000110000 ,
b00000000000000000000000000110100 -
b001 3
b00000000000000000000000000101100 7
b00000000000000000000010000011000 8
b00000000000000000000000000010100 =
b00000000000000000000000000110000 >
b00000000000000000000000000000000 C
b00000000000000000000000000010011 H
b00000000000000000000000000101100 I
b00000000000000000000000000001010 M
b00000000000000000000000000101000 O
b00000000000000000000000000001010 P
b11100 Q
b111 V
b0000000 W
b0000000001011101111110101 X
b11011 Y
b00101 Z
b00000000000000000000010001000100 ]
b00000000000000000 `
0'!
#25
b00000001110000111110101110110011 a
b00000000000000000000000000110100 b
b00000000000000000000000000111000 c
1'!
b00000000000000000000000000111000 -!
#26
b00000001110000111110101110110011 #
b011 (
b10111 *
b00000000000000000000000000011100 +
b00000000000000000000000000110100 ,
b00000000000000000000000000111000 -
b010 3
b00000000000000000000000000110000 7
b00000000000000000000000000000101 8
b00000000000000000000000000010101 =
b00000000000000000000000000110100 >
b00000000000000000000000000010100 H
b00000000000000000000000000110000 I
b00000000000000000000000000000000 M
b00000000000000000000000000101100 O
b00000000000000000000000000000000 P
b10011 Q
b110 V
b0000000111000011111010111 X
b00111 Y
b11100 Z
b00000000000000000000000000110101 ]
0'!
#27
b00000000000000000000000000000000 a
b00000000000000000000000000111000 b
b00000000000000000000000000111100 c
1'!
b00000000000000000000000000111100 -!
#28
b00000000000000000000000000000000 #
b00000 *
b00000000000000000000000000000000 +
b00000000000000000000000000111000 ,
b00000000000000000000000000111100 -
b011 3
b00000000000000000000000000110100 7
b00000000000000000000000000011100 8
b00000000000000000000000000010111 =
b00000000000000000000000000111000 >
b00000000000000000000000000010101 H
b00000000000000000000000000110100 I
b00000000000000000000000000110000 O
b10100 Q
b0000000 U
b000 V
b0000000000000000000000000 X
b00000 Y
b00000 Z
b00000000000000000000000001010000 ]
0'!
#29
b00000000000000000000000000111100 b
b00000000000000000000000001000000 c
1'!
b00000000000000000000000001000000 -!
#30
b00000000000000000000000000111100 ,
b00000000000000000000000001000000 -
b00000000000000000000000000111000 7
b00000000000000000000000000000000 8
b00000000000000000000000000000000 =
b00000000000000000000000000111100 >
b00000000000000000000000000010111 H
b00000000000000000000000000111000 I
b00000000000000000000000000110100 O
b10101 Q
b00000000000000000000000000111000 ]
0'!
#31
b00000000000000000000000001000000 b
b00000000000000000000000001000100 c
1'!
b00000000000000000000000001000100 -!
#32
b00000000000000000000000001000000 ,
b00000000000000000000000001000100 -
b00000000000000000000000000111100 7
b00000000000000000000000001000000 >
b00000000000000000000000000000000 H
b00000000000000000000000000111100 I
b00000000000000000000000000111000 O
b10111 Q
b00000000000000000000000000111100 ]
0'!
#33
b00000000000000000000000001000100 b
b00000000000000000000000001001000 c
1'!
b00000000000000000000000001001000 -!
#34
b00000000000000000000000001000100 ,
b00000000000000000000000001001000 -
b00000000000000000000000001000000 7
b00000000000000000000000001000100 >
b00000000000000000000000001000000 I
b00000000000000000000000000111100 O
b00000 Q
b00000000000000000000000001000000 ]
0'!
#35
b00000000000000000000000001001000 b
b00000000000000000000000001001100 c
1'!
b00000000000000000000000001001100 -!
#36
b00000000000000000000000001001000 ,
b00000000000000000000000001001100 -
b00000000000000000000000001000100 7
b00000000000000000000000001001000 >
b00000000000000000000000001000100 I
b00000000000000000000000001000000 O
b00000000000000000000000001000100 ]
0'!
#37
b00000000000000000000000001001100 b
b00000000000000000000000001010000 c
1'!
b00000000000000000000000001010000 -!
#38
b00000000000000000000000001001100 ,
b00000000000000000000000001010000 -
b00000000000000000000000001001000 7
b00000000000000000000000001001100 >
b00000000000000000000000001001000 I
b00000000000000000000000001000100 O
b00000000000000000000000001001000 ]
0'!
#39
b00000000000000000000000001010000 b
b00000000000000000000000001010100 c
1'!
b00000000000000000000000001010100 -!
#40
b00000000000000000000000001010000 ,
b00000000000000000000000001010100 -
b00000000000000000000000001001100 7
b00000000000000000000000001010000 >
b00000000000000000000000001001100 I
b00000000000000000000000001001000 O
b00000000000000000000000001001100 ]
0'!
#41
b00000000000000000000000001010100 b
b00000000000000000000000001011000 c
1'!
b00000000000000000000000001011000 -!
#42
b00000000000000000000000001010100 ,
b00000000000000000000000001011000 -
b00000000000000000000000001010000 7
b00000000000000000000000001010100 >
b00000000000000000000000001010000 I
b00000000000000000000000001001100 O
b00000000000000000000000001010000 ]
0'!
#43
b00000000000000000000000001011000 b
b00000000000000000000000001011100 c
1'!
b00000000000000000000000001011100 -!
#44
b00000000000000000000000001011000 ,
b00000000000000000000000001011100 -
b00000000000000000000000001010100 7
b00000000000000000000000001011000 >
b00000000000000000000000001010100 I
b00000000000000000000000001010000 O
b00000000000000000000000001010100 ]
0'!
#45
b00000000000000000000000001011100 b
b00000000000000000000000001100000 c
1'!
b00000000000000000000000001100000 -!
#46
b00000000000000000000000001011100 ,
b00000000000000000000000001100000 -
b00000000000000000000000001011000 7
b00000000000000000000000001011100 >
b00000000000000000000000001011000 I
b00000000000000000000000001010100 O
b00000000000000000000000001011000 ]
0'!
#47
b00000000000000000000000001100000 b
b00000000000000000000000001100100 c
1'!
b00000000000000000000000001100100 -!
#48
b00000000000000000000000001100000 ,
b00000000000000000000000001100100 -
b00000000000000000000000001011100 7
b00000000000000000000000001100000 >
b00000000000000000000000001011100 I
b00000000000000000000000001011000 O
b00000000000000000000000001011100 ]
0'!
#49
b00000000000000000000000001100100 b
b00000000000000000000000001101000 c
1'!
b00000000000000000000000001101000 -!
#50
b00000000000000000000000001100100 ,
b00000000000000000000000001101000 -
b00000000000000000000000001100000 7
b00000000000000000000000001100100 >
b00000000000000000000000001100000 I
b00000000000000000000000001011100 O
b00000000000000000000000001100000 ]
0'!
#51
b00000000000000000000000001101000 b
b00000000000000000000000001101100 c
1'!
b00000000000000000000000001101100 -!
#52
b00000000000000000000000001101000 ,
b00000000000000000000000001101100 -
b00000000000000000000000001100100 7
b00000000000000000000000001101000 >
b00000000000000000000000001100100 I
b00000000000000000000000001100000 O
b00000000000000000000000001100100 ]
0'!
#53
b00000000000000000000000001101100 b
b00000000000000000000000001110000 c
1'!
b00000000000000000000000001110000 -!
#54
b00000000000000000000000001101100 ,
b00000000000000000000000001110000 -
b00000000000000000000000001101000 7
b00000000000000000000000001101100 >
b00000000000000000000000001101000 I
b00000000000000000000000001100100 O
b00000000000000000000000001101000 ]
0'!
#55
b00000000000000000000000001110000 b
b00000000000000000000000001110100 c
1'!
b00000000000000000000000001110100 -!
#56
b00000000000000000000000001110000 ,
b00000000000000000000000001110100 -
b00000000000000000000000001101100 7
b00000000000000000000000001110000 >
b00000000000000000000000001101100 I
b00000000000000000000000001101000 O
b00000000000000000000000001101100 ]
0'!
#57
b00000000000000000000000001110100 b
b00000000000000000000000001111000 c
1'!
b00000000000000000000000001111000 -!
#58
b00000000000000000000000001110100 ,
b00000000000000000000000001111000 -
b00000000000000000000000001110000 7
b00000000000000000000000001110100 >
b00000000000000000000000001110000 I
b00000000000000000000000001101100 O
b00000000000000000000000001110000 ]
0'!
#59
b00000000000000000000000001111000 b
b00000000000000000000000001111100 c
1'!
b00000000000000000000000001111100 -!
#60
b00000000000000000000000001111000 ,
b00000000000000000000000001111100 -
b00000000000000000000000001110100 7
b00000000000000000000000001111000 >
b00000000000000000000000001110100 I
b00000000000000000000000001110000 O
b00000000000000000000000001110100 ]
0'!
#61
b00000000000000000000000001111100 b
b00000000000000000000000010000000 c
1'!
b00000000000000000000000010000000 -!
#62
b00000000000000000000000001111100 ,
b00000000000000000000000010000000 -
b00000000000000000000000001111000 7
b00000000000000000000000001111100 >
b00000000000000000000000001111000 I
b00000000000000000000000001110100 O
b00000000000000000000000001111000 ]
0'!
#63
b00000000000000000000000010000000 b
b00000000000000000000000010000100 c
1'!
b00000000000000000000000010000100 -!
#64
b00000000000000000000000010000000 ,
b00000000000000000000000010000100 -
b00000000000000000000000001111100 7
b00000000000000000000000010000000 >
b00000000000000000000000001111100 I
b00000000000000000000000001111000 O
b00000000000000000000000001111100 ]
0'!
#65
b00000000000000000000000010000100 b
b00000000000000000000000010001000 c
1'!
b00000000000000000000000010001000 -!
#66
b00000000000000000000000010000100 ,
b00000000000000000000000010001000 -
b00000000000000000000000010000000 7
b00000000000000000000000010000100 >
b00000000000000000000000010000000 I
b00000000000000000000000001111100 O
b00000000000000000000000010000000 ]
0'!
